<svg xmlns="http://www.w3.org/2000/svg" width="16" height="22" viewBox="0 0 16 22">
  <defs>
    <style>
      .cls-1 {
        fill: #c6970c;
        fill-rule: evenodd;
      }
    </style>
  </defs>
  <path id="Forma_1" data-name="Forma 1" class="cls-1" d="M713.961,513l4.315-2.637V501.4l1.729-1.057v-9.331l-6.044,3.576V513Zm-4.126-2.3h1.433v0.741h-1.433v-0.741Zm-4.027,0h1.433v0.741h-1.433v-0.741ZM704,513h9.21V494.681H704V513Zm8.023-.816h-2.934v-2.221h2.934v2.221Zm-6.553-15.422h6.271V508.7h-6.271V496.765Zm-0.408,13.2h2.934v2.221h-2.934v-2.221ZM710.238,491l-6.008,3.023h9.214L718.69,491h-8.452Zm0.122,10.861h0a2.3,2.3,0,0,0-.149-0.2,11.6,11.6,0,0,1-1.726-3.416,11.617,11.617,0,0,1-1.727,3.416,2.459,2.459,0,0,0-.149.2h0a2.875,2.875,0,0,0-.462,1.581,2.356,2.356,0,1,0,4.677,0,2.859,2.859,0,0,0-.462-1.581h0Zm-0.225,2.466c-0.13.374-.735,0.214-0.6-0.164a1.813,1.813,0,0,0-.337-1.912c-0.263-.3.178-0.738,0.443-0.437A2.43,2.43,0,0,1,710.135,504.324Z" transform="translate(-704 -491)"/>
</svg>
