<?xml version="1.0" encoding="utf-8"?>
<!-- Generator: Adobe Illustrator 20.0.0, SVG Export Plug-In . SVG Version: 6.00 Build 0)  -->
<svg version="1.1" id="Layer_1" xmlns="http://www.w3.org/2000/svg" xmlns:xlink="http://www.w3.org/1999/xlink" x="0px" y="0px"
	 width="97px" height="97px" viewBox="0 0 97 97" style="enable-background:new 0 0 97 97;" xml:space="preserve">
<style type="text/css">
	.st0{fill:url(#SVGID_1_);}
</style>
<linearGradient id="SVGID_1_" gradientUnits="userSpaceOnUse" x1="-5.854808e-07" y1="48.4944" x2="97.0002" y2="48.4944">
	<stop  offset="0" style="stop-color:#996515"/>
	<stop  offset="1" style="stop-color:#FFD700"/>
</linearGradient>
<path class="st0" d="M82.8,14.2c-18.9-18.9-49.6-18.9-68.6,0s-18.9,49.6,0,68.6s49.6,18.9,68.6,0C91.9,73.7,97,61.4,97,48.5
	C97,35.6,91.9,23.3,82.8,14.2z M48.5,93.1c-24.7,0-44.6-20-44.6-44.6c0-24.7,20-44.6,44.6-44.6c24.7,0,44.6,20,44.6,44.6
	c0,0,0,0,0,0C93.1,73.1,73.1,93.1,48.5,93.1z M76.1,27.7c-2.6-2.6-6.9-2.6-9.6,0L38.1,56.1l-9.3-9.3c-2.7-2.6-6.9-2.6-9.6,0.1
	c-2.6,2.6-2.6,6.9,0,9.5l14.1,14.1c2.6,2.6,6.9,2.6,9.6,0l33.2-33.2C78.7,34.6,78.7,30.3,76.1,27.7z M73.4,34.5L40.1,67.7
	c-1.1,1.1-3,1.1-4.1,0L21.9,53.6c-1.1-1.2-1.1-3,0.1-4.1c1.1-1.1,2.9-1.1,4,0l10.7,10.7c0.8,0.8,2,0.8,2.7,0l29.8-29.8
	c1.1-1.2,2.9-1.3,4.1-0.2s1.3,2.9,0.2,4.1C73.5,34.4,73.4,34.5,73.4,34.5L73.4,34.5z M87.6,56.5c-1-0.3-2.1,0.4-2.3,1.4c0,0,0,0,0,0
	c-4.3,16.8-19.4,28.5-36.7,28.5c-1.1,0-1.9,0.9-1.9,2c0,1,0.9,1.9,1.9,1.9c19.1,0,35.7-12.9,40.4-31.4
	C89.2,57.8,88.6,56.7,87.6,56.5C87.6,56.5,87.6,56.5,87.6,56.5L87.6,56.5z M88.3,46.6c-1.1,0-1.9,0.9-1.9,1.9c0,0.6,0,1.1,0,1.7
	c0,1.1,0.8,2,1.8,2h0.1c1,0,1.9-0.8,1.9-1.8c0-0.6,0-1.2,0-1.8C90.2,47.4,89.4,46.6,88.3,46.6L88.3,46.6z"/>
</svg>
